map price radios

braintreecomponent to submit

Send from multi numbers

Delayfire




email
localize CSS















<script type="text/javascript">
    /** This section is only needed once per page if manually copying **/
    if (typeof MauticSDKLoaded == 'undefined') {
        var MauticSDKLoaded = true;
        var head            = document.getElementsByTagName('head')[0];
        var script          = document.createElement('script');
        script.type         = 'text/javascript';
        script.src          = 'http://strikeem.com/mautic/media/js/mautic-form.js';
        script.onload       = function() {
            MauticSDK.onLoad();
        };
        head.appendChild(script);
        var MauticDomain = 'http://strikeem.com/mautic';
        var MauticLang   = {
            'submittingMessage': "Please wait..."
        }
    }
</script>